<mxfile host="app.diagrams.net" modified="2022-10-19T07:42:58.852Z" agent="5.0 (Windows NT 10.0; Win64; x64) AppleWebKit/537.36 (KHTML, like Gecko) Chrome/106.0.0.0 Safari/537.36" etag="VBSnLk7OFrypkmJUC6ht" version="20.3.3" type="gitlab">
  <diagram id="WNolN0S1E6CTjZ8_fLAt" name="Page-1">
    <mxGraphModel dx="782" dy="507" grid="1" gridSize="10" guides="1" tooltips="1" connect="1" arrows="1" fold="1" page="1" pageScale="1" pageWidth="850" pageHeight="1100" math="0" shadow="0">
      <root>
        <mxCell id="0" />
        <mxCell id="1" parent="0" />
        <mxCell id="o85DedtkQRAzdShB_5V--1" value="" style="whiteSpace=wrap;html=1;rounded=0;shadow=1;labelBackgroundColor=none;strokeColor=#000000;strokeWidth=1;fillColor=none;fontFamily=Verdana;fontSize=12;fontColor=#000000;align=center;comic=1;" vertex="1" parent="1">
          <mxGeometry x="547.5" y="1520" width="1060" height="750" as="geometry" />
        </mxCell>
        <mxCell id="o85DedtkQRAzdShB_5V--2" value="" style="line;strokeWidth=1;html=1;rounded=0;shadow=0;labelBackgroundColor=none;fillColor=none;fontFamily=Verdana;fontSize=14;fontColor=#000000;align=center;comic=1;" vertex="1" parent="1">
          <mxGeometry x="547.5" y="1590" width="1060" height="10" as="geometry" />
        </mxCell>
        <mxCell id="o85DedtkQRAzdShB_5V--3" value="" style="verticalLabelPosition=bottom;shadow=0;dashed=0;align=center;html=1;verticalAlign=top;strokeWidth=1;shape=mxgraph.mockup.graphics.simpleIcon;strokeColor=#999999;rounded=0;labelBackgroundColor=none;fontFamily=Verdana;fontSize=14;fontColor=#000000;comic=1;" vertex="1" parent="1">
          <mxGeometry x="592.5" y="1620" width="244" height="175" as="geometry" />
        </mxCell>
        <mxCell id="o85DedtkQRAzdShB_5V--4" value="" style="whiteSpace=wrap;html=1;rounded=0;shadow=1;labelBackgroundColor=none;strokeColor=#000000;strokeWidth=1;fillColor=none;fontFamily=Verdana;fontSize=12;fontColor=#000000;align=center;comic=1;" vertex="1" parent="1">
          <mxGeometry x="548.5" y="810" width="1060" height="590" as="geometry" />
        </mxCell>
        <mxCell id="o85DedtkQRAzdShB_5V--5" value="Logo" style="whiteSpace=wrap;html=1;rounded=0;shadow=0;labelBackgroundColor=none;strokeWidth=1;fontFamily=Verdana;fontSize=28;align=center;comic=1;" vertex="1" parent="1">
          <mxGeometry x="566" y="840" width="120" height="50" as="geometry" />
        </mxCell>
        <mxCell id="o85DedtkQRAzdShB_5V--6" value="" style="rounded=1;whiteSpace=wrap;html=1;shadow=1;sketch=0;strokeWidth=2;fontFamily=Comic Sans MS;fontSize=30;" vertex="1" parent="1">
          <mxGeometry x="766" y="965" width="590" height="390" as="geometry" />
        </mxCell>
        <mxCell id="o85DedtkQRAzdShB_5V--7" value="&lt;h4&gt;&lt;font color=&quot;#4d4d4d&quot;&gt;&lt;span style=&quot;font-size: 20px&quot;&gt;Email&lt;/span&gt;&lt;/font&gt;&lt;/h4&gt;" style="text;html=1;strokeColor=none;fillColor=none;align=center;verticalAlign=middle;whiteSpace=wrap;rounded=0;fontStyle=1;fontFamily=Lucida Console;" vertex="1" parent="1">
          <mxGeometry x="850" y="1000" width="70" height="30" as="geometry" />
        </mxCell>
        <mxCell id="o85DedtkQRAzdShB_5V--8" value="" style="rounded=0;whiteSpace=wrap;html=1;shadow=1;sketch=0;strokeWidth=1;fontFamily=Lucida Console;fontSize=30;" vertex="1" parent="1">
          <mxGeometry x="853" y="1050" width="330" height="40" as="geometry" />
        </mxCell>
        <mxCell id="o85DedtkQRAzdShB_5V--9" value="&lt;h4&gt;&lt;span style=&quot;font-size: 20px;&quot;&gt;&lt;font color=&quot;#4d4d4d&quot;&gt;Password&lt;/font&gt;&lt;/span&gt;&lt;/h4&gt;" style="text;html=1;strokeColor=none;fillColor=none;align=center;verticalAlign=middle;whiteSpace=wrap;rounded=0;fontStyle=1;fontFamily=Lucida Console;" vertex="1" parent="1">
          <mxGeometry x="856" y="1120" width="120" height="30" as="geometry" />
        </mxCell>
        <mxCell id="o85DedtkQRAzdShB_5V--10" value="" style="rounded=0;whiteSpace=wrap;html=1;shadow=1;sketch=0;strokeWidth=1;fontFamily=Lucida Console;fontSize=30;" vertex="1" parent="1">
          <mxGeometry x="856" y="1170" width="330" height="40" as="geometry" />
        </mxCell>
        <mxCell id="o85DedtkQRAzdShB_5V--11" value="Login" style="rounded=1;whiteSpace=wrap;html=1;shadow=1;sketch=0;strokeWidth=1;fontFamily=Lucida Console;fontSize=30;fontColor=#4D4D4D;strokeColor=#6666FF;" vertex="1" parent="1">
          <mxGeometry x="976" y="1260" width="130" height="40" as="geometry" />
        </mxCell>
        <mxCell id="o85DedtkQRAzdShB_5V--12" value="&lt;p style=&quot;line-height: 1.1;&quot;&gt;&lt;font style=&quot;font-size: 18px;&quot;&gt;Forgotten password?&lt;/font&gt;&lt;/p&gt;" style="text;html=1;strokeColor=none;fillColor=none;align=center;verticalAlign=middle;whiteSpace=wrap;rounded=0;shadow=1;labelBackgroundColor=none;sketch=0;strokeWidth=1;fontFamily=Lucida Console;fontSize=30;fontColor=#BDBDBD;textOpacity=90;" vertex="1" parent="1">
          <mxGeometry x="860" y="1210" width="240" height="30" as="geometry" />
        </mxCell>
        <mxCell id="o85DedtkQRAzdShB_5V--13" value="" style="whiteSpace=wrap;html=1;rounded=0;shadow=1;labelBackgroundColor=none;strokeColor=#000000;strokeWidth=1;fillColor=none;fontFamily=Verdana;fontSize=12;fontColor=#000000;align=center;comic=1;" vertex="1" parent="1">
          <mxGeometry x="566" y="3120" width="1060" height="400" as="geometry" />
        </mxCell>
        <mxCell id="o85DedtkQRAzdShB_5V--14" value="&lt;h4&gt;&lt;font face=&quot;Comic Sans MS&quot;&gt;&lt;span style=&quot;font-size: 20px&quot;&gt;Edit Profile&lt;/span&gt;&lt;/font&gt;&lt;/h4&gt;" style="text;html=1;strokeColor=none;fillColor=none;align=center;verticalAlign=middle;whiteSpace=wrap;rounded=0;fontStyle=1" vertex="1" parent="1">
          <mxGeometry x="1031" y="3170" width="140" height="50" as="geometry" />
        </mxCell>
        <mxCell id="o85DedtkQRAzdShB_5V--15" value="" style="html=1;strokeColor=none;fillColor=#666666;labelPosition=center;verticalLabelPosition=middle;verticalAlign=top;align=center;fontSize=12;outlineConnect=0;spacingTop=-6;fontColor=#FFFFFF;sketch=0;shape=mxgraph.sitemap.profile;" vertex="1" parent="1">
          <mxGeometry x="1041" y="3240" width="120" height="130" as="geometry" />
        </mxCell>
        <mxCell id="o85DedtkQRAzdShB_5V--16" value="&lt;h4&gt;&lt;font face=&quot;Comic Sans MS&quot;&gt;&lt;span style=&quot;font-size: 20px&quot;&gt;Name:&lt;/span&gt;&lt;/font&gt;&lt;/h4&gt;" style="text;html=1;strokeColor=none;fillColor=none;align=center;verticalAlign=middle;whiteSpace=wrap;rounded=0;fontStyle=1" vertex="1" parent="1">
          <mxGeometry x="846" y="3390" width="140" height="50" as="geometry" />
        </mxCell>
        <mxCell id="o85DedtkQRAzdShB_5V--17" value="&lt;h4&gt;&lt;font face=&quot;Comic Sans MS&quot;&gt;&lt;span style=&quot;font-size: 20px&quot;&gt;Change Password&lt;/span&gt;&lt;/font&gt;&lt;/h4&gt;" style="text;html=1;strokeColor=none;fillColor=none;align=center;verticalAlign=middle;whiteSpace=wrap;rounded=0;fontStyle=1" vertex="1" parent="1">
          <mxGeometry x="861" y="3460" width="220" height="50" as="geometry" />
        </mxCell>
        <mxCell id="o85DedtkQRAzdShB_5V--18" value="" style="line;strokeWidth=4;html=1;perimeter=backbonePerimeter;points=[];outlineConnect=0;fillColor=#666666;" vertex="1" parent="1">
          <mxGeometry x="980.5" y="3420" width="370" height="10" as="geometry" />
        </mxCell>
        <mxCell id="o85DedtkQRAzdShB_5V--19" value="" style="whiteSpace=wrap;html=1;rounded=0;shadow=1;labelBackgroundColor=none;strokeColor=#000000;strokeWidth=1;fillColor=none;fontFamily=Verdana;fontSize=12;fontColor=#000000;align=center;comic=1;" vertex="1" parent="1">
          <mxGeometry x="565" y="2400" width="1060" height="630" as="geometry" />
        </mxCell>
        <mxCell id="o85DedtkQRAzdShB_5V--20" value="&lt;h4&gt;&lt;font face=&quot;Comic Sans MS&quot;&gt;&lt;span style=&quot;font-size: 20px&quot;&gt;Name:&lt;/span&gt;&lt;/font&gt;&lt;/h4&gt;" style="text;html=1;strokeColor=none;fillColor=none;align=center;verticalAlign=middle;whiteSpace=wrap;rounded=0;fontStyle=1" vertex="1" parent="1">
          <mxGeometry x="962.75" y="2690" width="83.25" height="45" as="geometry" />
        </mxCell>
        <mxCell id="o85DedtkQRAzdShB_5V--21" value="&lt;h4&gt;&lt;font face=&quot;Comic Sans MS&quot;&gt;&lt;span style=&quot;font-size: 20px;&quot;&gt;Sonam&lt;/span&gt;&lt;/font&gt;&lt;/h4&gt;" style="text;html=1;strokeColor=none;fillColor=none;align=center;verticalAlign=middle;whiteSpace=wrap;rounded=0;fontStyle=1" vertex="1" parent="1">
          <mxGeometry x="1060.25" y="2690" width="97.5" height="50" as="geometry" />
        </mxCell>
        <mxCell id="o85DedtkQRAzdShB_5V--22" value="&lt;h4&gt;&lt;font face=&quot;Comic Sans MS&quot;&gt;&lt;span style=&quot;font-size: 20px;&quot;&gt;Email:&lt;/span&gt;&lt;/font&gt;&lt;/h4&gt;" style="text;html=1;strokeColor=none;fillColor=none;align=center;verticalAlign=middle;whiteSpace=wrap;rounded=0;fontStyle=1" vertex="1" parent="1">
          <mxGeometry x="932.5" y="2750" width="143.75" height="50" as="geometry" />
        </mxCell>
        <mxCell id="o85DedtkQRAzdShB_5V--23" value="&lt;h4&gt;&lt;font face=&quot;Comic Sans MS&quot;&gt;&lt;span style=&quot;font-size: 20px;&quot;&gt;example@gmail.com&lt;/span&gt;&lt;/font&gt;&lt;/h4&gt;" style="text;html=1;strokeColor=none;fillColor=none;align=center;verticalAlign=middle;whiteSpace=wrap;rounded=0;fontStyle=1" vertex="1" parent="1">
          <mxGeometry x="1110" y="2750" width="97.5" height="50" as="geometry" />
        </mxCell>
        <mxCell id="o85DedtkQRAzdShB_5V--24" value="" style="shape=image;html=1;verticalAlign=top;verticalLabelPosition=bottom;labelBackgroundColor=#ffffff;imageAspect=0;aspect=fixed;image=https://cdn4.iconfinder.com/data/icons/essential-part-3/32/215-User-128.png" vertex="1" parent="1">
          <mxGeometry x="1009.5" y="2540" width="120.25" height="120.25" as="geometry" />
        </mxCell>
        <mxCell id="o85DedtkQRAzdShB_5V--25" value="&lt;font style=&quot;font-size: 24px;&quot; face=&quot;Verdana&quot;&gt;Home&amp;nbsp;&lt;/font&gt;" style="text;html=1;strokeColor=none;fillColor=none;align=center;verticalAlign=middle;whiteSpace=wrap;rounded=0;" vertex="1" parent="1">
          <mxGeometry x="1169.5" y="1540" width="60" height="30" as="geometry" />
        </mxCell>
        <mxCell id="o85DedtkQRAzdShB_5V--26" value="&lt;font face=&quot;Verdana&quot;&gt;&lt;span style=&quot;font-size: 24px;&quot;&gt;About Us&lt;/span&gt;&lt;/font&gt;" style="text;html=1;strokeColor=none;fillColor=none;align=center;verticalAlign=middle;whiteSpace=wrap;rounded=0;" vertex="1" parent="1">
          <mxGeometry x="1252.5" y="1540" width="130" height="30" as="geometry" />
        </mxCell>
        <mxCell id="o85DedtkQRAzdShB_5V--27" value="&lt;font face=&quot;Verdana&quot;&gt;&lt;span style=&quot;font-size: 24px;&quot;&gt;Logout&lt;br&gt;&lt;/span&gt;&lt;/font&gt;" style="text;html=1;strokeColor=none;fillColor=none;align=center;verticalAlign=middle;whiteSpace=wrap;rounded=0;" vertex="1" parent="1">
          <mxGeometry x="1447.5" y="1540" width="60" height="30" as="geometry" />
        </mxCell>
        <mxCell id="o85DedtkQRAzdShB_5V--28" value="&lt;span style=&quot;color: rgba(0, 0, 0, 0); font-family: monospace; font-size: 0px; text-align: start;&quot;&gt;%3CmxGraphModel%3E%3Croot%3E%3CmxCell%20id%3D%220%22%2F%3E%3CmxCell%20id%3D%221%22%20parent%3D%220%22%2F%3E%3CmxCell%20id%3D%222%22%20value%3D%22%26lt%3Bfont%20face%3D%26quot%3BVerdana%26quot%3B%26gt%3B%26lt%3Bspan%20style%3D%26quot%3Bfont-size%3A%2024px%3B%26quot%3B%26gt%3BAbout%20Us%26lt%3B%2Fspan%26gt%3B%26lt%3B%2Ffont%26gt%3B%22%20style%3D%22text%3Bhtml%3D1%3BstrokeColor%3Dnone%3BfillColor%3Dnone%3Balign%3Dcenter%3BverticalAlign%3Dmiddle%3BwhiteSpace%3Dwrap%3Brounded%3D0%3B%22%20vertex%3D%221%22%20parent%3D%221%22%3E%3CmxGeometry%20x%3D%22730%22%20y%3D%2270%22%20width%3D%22130%22%20height%3D%2230%22%20as%3D%22geometry%22%2F%3E%3C%2FmxCell%3E%3C%2Froot%3E%3C%2FmxGraphModel%3E&lt;/span&gt;" style="rounded=0;whiteSpace=wrap;html=1;" vertex="1" parent="1">
          <mxGeometry x="664.75" y="1835" width="189.5" height="145" as="geometry" />
        </mxCell>
        <mxCell id="o85DedtkQRAzdShB_5V--29" value="&lt;font face=&quot;Verdana&quot;&gt;&lt;span style=&quot;font-size: 24px;&quot;&gt;Post News&lt;/span&gt;&lt;/font&gt;" style="text;html=1;strokeColor=none;fillColor=none;align=center;verticalAlign=middle;whiteSpace=wrap;rounded=0;" vertex="1" parent="1">
          <mxGeometry x="671.25" y="1905" width="170" height="30" as="geometry" />
        </mxCell>
        <mxCell id="o85DedtkQRAzdShB_5V--30" value="&lt;font face=&quot;Verdana&quot;&gt;&lt;span style=&quot;font-size: 24px;&quot;&gt;&lt;b&gt;Welcome!&lt;/b&gt;&lt;/span&gt;&lt;/font&gt;" style="text;html=1;strokeColor=none;fillColor=none;align=center;verticalAlign=middle;whiteSpace=wrap;rounded=0;" vertex="1" parent="1">
          <mxGeometry x="932" y="890" width="246.5" height="30" as="geometry" />
        </mxCell>
        <mxCell id="o85DedtkQRAzdShB_5V--31" value="Logo" style="whiteSpace=wrap;html=1;rounded=0;shadow=0;labelBackgroundColor=none;strokeWidth=1;fontFamily=Verdana;fontSize=28;align=center;comic=1;" vertex="1" parent="1">
          <mxGeometry x="562.5" y="1535" width="120" height="50" as="geometry" />
        </mxCell>
        <mxCell id="o85DedtkQRAzdShB_5V--32" value="Logo" style="whiteSpace=wrap;html=1;rounded=0;shadow=0;labelBackgroundColor=none;strokeWidth=1;fontFamily=Verdana;fontSize=28;align=center;comic=1;" vertex="1" parent="1">
          <mxGeometry x="595.5" y="2440" width="120" height="50" as="geometry" />
        </mxCell>
        <mxCell id="o85DedtkQRAzdShB_5V--33" value="&lt;font style=&quot;font-size: 24px;&quot; face=&quot;Verdana&quot;&gt;Home&amp;nbsp;&lt;/font&gt;" style="text;html=1;strokeColor=none;fillColor=none;align=center;verticalAlign=middle;whiteSpace=wrap;rounded=0;" vertex="1" parent="1">
          <mxGeometry x="1168.5" y="2450" width="60" height="30" as="geometry" />
        </mxCell>
        <mxCell id="o85DedtkQRAzdShB_5V--34" value="&lt;font face=&quot;Verdana&quot;&gt;&lt;span style=&quot;font-size: 24px;&quot;&gt;About Us&lt;/span&gt;&lt;/font&gt;" style="text;html=1;strokeColor=none;fillColor=none;align=center;verticalAlign=middle;whiteSpace=wrap;rounded=0;" vertex="1" parent="1">
          <mxGeometry x="1251.5" y="2450" width="130" height="30" as="geometry" />
        </mxCell>
        <mxCell id="o85DedtkQRAzdShB_5V--35" value="&lt;font face=&quot;Verdana&quot;&gt;&lt;span style=&quot;font-size: 24px;&quot;&gt;Logout&lt;br&gt;&lt;br&gt;&lt;/span&gt;&lt;/font&gt;" style="text;html=1;strokeColor=none;fillColor=none;align=center;verticalAlign=middle;whiteSpace=wrap;rounded=0;" vertex="1" parent="1">
          <mxGeometry x="1448.5" y="2460" width="141" height="30" as="geometry" />
        </mxCell>
        <mxCell id="o85DedtkQRAzdShB_5V--36" value="&lt;span style=&quot;color: rgba(0, 0, 0, 0); font-family: monospace; font-size: 0px; text-align: start;&quot;&gt;%3CmxGraphModel%3E%3Croot%3E%3CmxCell%20id%3D%220%22%2F%3E%3CmxCell%20id%3D%221%22%20parent%3D%220%22%2F%3E%3CmxCell%20id%3D%222%22%20value%3D%22%26lt%3Bfont%20face%3D%26quot%3BVerdana%26quot%3B%26gt%3B%26lt%3Bspan%20style%3D%26quot%3Bfont-size%3A%2024px%3B%26quot%3B%26gt%3BAbout%20Us%26lt%3B%2Fspan%26gt%3B%26lt%3B%2Ffont%26gt%3B%22%20style%3D%22text%3Bhtml%3D1%3BstrokeColor%3Dnone%3BfillColor%3Dnone%3Balign%3Dcenter%3BverticalAlign%3Dmiddle%3BwhiteSpace%3Dwrap%3Brounded%3D0%3B%22%20vertex%3D%221%22%20parent%3D%221%22%3E%3CmxGeometry%20x%3D%22730%22%20y%3D%2270%22%20width%3D%22130%22%20height%3D%2230%22%20as%3D%22geometry%22%2F%3E%3C%2FmxCell%3E%3C%2Froot%3E%3C%2FmxGraphModel%3E&lt;/span&gt;" style="rounded=0;whiteSpace=wrap;html=1;" vertex="1" parent="1">
          <mxGeometry x="990.25" y="1835" width="189.5" height="145" as="geometry" />
        </mxCell>
        <mxCell id="o85DedtkQRAzdShB_5V--37" value="&lt;font face=&quot;Verdana&quot;&gt;&lt;span style=&quot;font-size: 24px;&quot;&gt;Update News&lt;/span&gt;&lt;/font&gt;" style="text;html=1;strokeColor=none;fillColor=none;align=center;verticalAlign=middle;whiteSpace=wrap;rounded=0;" vertex="1" parent="1">
          <mxGeometry x="998.75" y="1892.5" width="170" height="30" as="geometry" />
        </mxCell>
        <mxCell id="o85DedtkQRAzdShB_5V--38" value="&lt;span style=&quot;color: rgba(0, 0, 0, 0); font-family: monospace; font-size: 0px; text-align: start;&quot;&gt;%3CmxGraphModel%3E%3Croot%3E%3CmxCell%20id%3D%220%22%2F%3E%3CmxCell%20id%3D%221%22%20parent%3D%220%22%2F%3E%3CmxCell%20id%3D%222%22%20value%3D%22%26lt%3Bfont%20face%3D%26quot%3BVerdana%26quot%3B%26gt%3B%26lt%3Bspan%20style%3D%26quot%3Bfont-size%3A%2024px%3B%26quot%3B%26gt%3BAbout%20Us%26lt%3B%2Fspan%26gt%3B%26lt%3B%2Ffont%26gt%3B%22%20style%3D%22text%3Bhtml%3D1%3BstrokeColor%3Dnone%3BfillColor%3Dnone%3Balign%3Dcenter%3BverticalAlign%3Dmiddle%3BwhiteSpace%3Dwrap%3Brounded%3D0%3B%22%20vertex%3D%221%22%20parent%3D%221%22%3E%3CmxGeometry%20x%3D%22730%22%20y%3D%2270%22%20width%3D%22130%22%20height%3D%2230%22%20as%3D%22geometry%22%2F%3E%3C%2FmxCell%3E%3C%2Froot%3E%3C%2FmxGraphModel%3E&lt;/span&gt;" style="rounded=0;whiteSpace=wrap;html=1;" vertex="1" parent="1">
          <mxGeometry x="1297.75" y="1835" width="189.5" height="145" as="geometry" />
        </mxCell>
        <mxCell id="o85DedtkQRAzdShB_5V--39" value="&lt;font face=&quot;Verdana&quot;&gt;&lt;span style=&quot;font-size: 24px;&quot;&gt;Delete News&lt;/span&gt;&lt;/font&gt;" style="text;html=1;strokeColor=none;fillColor=none;align=center;verticalAlign=middle;whiteSpace=wrap;rounded=0;" vertex="1" parent="1">
          <mxGeometry x="1307.5" y="1892.5" width="170" height="30" as="geometry" />
        </mxCell>
        <mxCell id="o85DedtkQRAzdShB_5V--40" value="" style="rounded=1;whiteSpace=wrap;html=1;" vertex="1" parent="1">
          <mxGeometry x="676.5" y="2025" width="800" height="220" as="geometry" />
        </mxCell>
        <mxCell id="o85DedtkQRAzdShB_5V--41" value="&lt;font face=&quot;Verdana&quot;&gt;&lt;span style=&quot;font-size: 24px;&quot;&gt;User1&lt;/span&gt;&lt;/font&gt;" style="text;html=1;strokeColor=none;fillColor=none;align=center;verticalAlign=middle;whiteSpace=wrap;rounded=0;" vertex="1" parent="1">
          <mxGeometry x="692.5" y="2055" width="170" height="30" as="geometry" />
        </mxCell>
        <mxCell id="o85DedtkQRAzdShB_5V--42" value="&lt;font face=&quot;Verdana&quot;&gt;&lt;span style=&quot;font-size: 24px;&quot;&gt;User2&lt;/span&gt;&lt;/font&gt;" style="text;html=1;strokeColor=none;fillColor=none;align=center;verticalAlign=middle;whiteSpace=wrap;rounded=0;" vertex="1" parent="1">
          <mxGeometry x="689.5" y="2125" width="170" height="30" as="geometry" />
        </mxCell>
        <mxCell id="o85DedtkQRAzdShB_5V--43" value="&lt;font face=&quot;Verdana&quot;&gt;&lt;span style=&quot;font-size: 24px;&quot;&gt;User3&lt;/span&gt;&lt;/font&gt;" style="text;html=1;strokeColor=none;fillColor=none;align=center;verticalAlign=middle;whiteSpace=wrap;rounded=0;" vertex="1" parent="1">
          <mxGeometry x="689.5" y="2185" width="170" height="30" as="geometry" />
        </mxCell>
        <mxCell id="o85DedtkQRAzdShB_5V--44" value="&lt;font style=&quot;font-size: 24px;&quot; face=&quot;Verdana&quot;&gt;Home&amp;nbsp;&lt;/font&gt;" style="text;html=1;strokeColor=none;fillColor=none;align=center;verticalAlign=middle;whiteSpace=wrap;rounded=0;" vertex="1" parent="1">
          <mxGeometry x="1184.5" y="3150" width="60" height="30" as="geometry" />
        </mxCell>
        <mxCell id="o85DedtkQRAzdShB_5V--45" value="&lt;font face=&quot;Verdana&quot;&gt;&lt;span style=&quot;font-size: 24px;&quot;&gt;About Us&lt;/span&gt;&lt;/font&gt;" style="text;html=1;strokeColor=none;fillColor=none;align=center;verticalAlign=middle;whiteSpace=wrap;rounded=0;" vertex="1" parent="1">
          <mxGeometry x="1267.5" y="3150" width="130" height="30" as="geometry" />
        </mxCell>
        <mxCell id="o85DedtkQRAzdShB_5V--46" value="&lt;font face=&quot;Verdana&quot;&gt;&lt;span style=&quot;font-size: 24px;&quot;&gt;Logout&lt;br&gt;&lt;br&gt;&lt;/span&gt;&lt;/font&gt;" style="text;html=1;strokeColor=none;fillColor=none;align=center;verticalAlign=middle;whiteSpace=wrap;rounded=0;" vertex="1" parent="1">
          <mxGeometry x="1464.5" y="3160" width="141" height="30" as="geometry" />
        </mxCell>
      </root>
    </mxGraphModel>
  </diagram>
</mxfile>
